\relax 
\@writefile{toc}{\contentsline {section}{\numberline {1}Apresenta\c c\~ao do problema}{1}}
\@writefile{toc}{\contentsline {section}{\numberline {2}Solu\c c\~ao}{1}}
\@writefile{toc}{\contentsline {section}{\numberline {3}Implementa\c c\~ao}{1}}
\@writefile{toc}{\contentsline {subsection}{\numberline {3.1}M\'odulos}{1}}
\@writefile{toc}{\contentsline {subsubsection}{\numberline {3.1.1}Main}{1}}
\@writefile{toc}{\contentsline {subsubsection}{\numberline {3.1.2}Arquivo}{1}}
\@writefile{toc}{\contentsline {subsubsection}{\numberline {3.1.3}FIFO (First-in-First-out)}{2}}
\@writefile{toc}{\contentsline {subsubsection}{\numberline {3.1.4}LRU (Least Recently Used)}{2}}
\@writefile{toc}{\contentsline {subsubsection}{\numberline {3.1.5}Algoritmo Random}{3}}
\@writefile{toc}{\contentsline {section}{\numberline {4}Observa\c c\~oes}{3}}
\@writefile{toc}{\contentsline {subsection}{\numberline {4.1}Modo de depura\c c\~ao}{3}}
\@writefile{toc}{\contentsline {section}{\numberline {5}An\'alise de Desempenho}{3}}
\@writefile{toc}{\contentsline {subsection}{\numberline {5.1}Compilador.log}{4}}
\@writefile{lof}{\contentsline {figure}{\numberline {1}{\ignorespaces Tamanho de p\'agina crescente}}{4}}
\@writefile{lof}{\contentsline {figure}{\numberline {2}{\ignorespaces Tamanho de mem\'oria crescente}}{4}}
\@writefile{lof}{\contentsline {figure}{\numberline {3}{\ignorespaces Tamanho de p\'agina crescente}}{4}}
\@writefile{lof}{\contentsline {figure}{\numberline {4}{\ignorespaces Tamanho de mem\'oria crescente}}{4}}
\@writefile{toc}{\contentsline {subsection}{\numberline {5.2}Simulador.log}{5}}
\@writefile{lof}{\contentsline {figure}{\numberline {5}{\ignorespaces Tamanho de p\'agina crescente}}{5}}
\@writefile{lof}{\contentsline {figure}{\numberline {6}{\ignorespaces Tamanho de mem\'oria crescente}}{5}}
\@writefile{lof}{\contentsline {figure}{\numberline {7}{\ignorespaces Tamanho de p\'agina crescente}}{5}}
\@writefile{lof}{\contentsline {figure}{\numberline {8}{\ignorespaces Tamanho de mem\'oria crescente}}{5}}
\@writefile{toc}{\contentsline {subsection}{\numberline {5.3}Matriz.log}{6}}
\@writefile{lof}{\contentsline {figure}{\numberline {9}{\ignorespaces Tamanho de p\'agina crescente}}{6}}
\@writefile{lof}{\contentsline {figure}{\numberline {10}{\ignorespaces Tamanho de mem\'oria crescente}}{6}}
\@writefile{lof}{\contentsline {figure}{\numberline {11}{\ignorespaces Tamanho de p\'agina crescente}}{6}}
\@writefile{lof}{\contentsline {figure}{\numberline {12}{\ignorespaces Tamanho de mem\'oria crescente}}{6}}
\@writefile{toc}{\contentsline {subsection}{\numberline {5.4}Compressor.log}{7}}
\@writefile{lof}{\contentsline {figure}{\numberline {13}{\ignorespaces Tamanho de p\'agina crescente}}{7}}
\@writefile{lof}{\contentsline {figure}{\numberline {14}{\ignorespaces Tamanho de mem\'oria crescente}}{7}}
\@writefile{lof}{\contentsline {figure}{\numberline {15}{\ignorespaces Tamanho de p\'agina crescente}}{7}}
\@writefile{lof}{\contentsline {figure}{\numberline {16}{\ignorespaces Tamanho de mem\'oria crescente}}{7}}
\@writefile{toc}{\contentsline {section}{\numberline {6}Conclus\~ao}{7}}
\@writefile{toc}{\contentsline {section}{\numberline {7}Refer\^encias}{8}}
